help.are
social.are
rom.are
group.are
olc.hlp
immort.are
ofcol2.are
shire.are
midgaard.are
plains.are
haon.are
air.are
arachnos.are
astral.are
canyon.are
catacomb.are
chapel.are
daycare.are
draconia.are
dream.are
drow.are
thalos.are
dwarven.are
dylan.are
eastern.are
galaxy.are
gnome.are
grave.are
grove.are
hitower.are
hood.are
limbo.are
mahntor.are
marsh.are
mega1.are
midennir.are
mirror.are
mobfact.are
moria.are
newthalos.are
nirvana.are
ofcol.are
olympus.are
pyramid.are
quifael.are
sewer.are
redferne.are
school.are
smurf.are
tohell.are
trollden.are
valley.are
wyvern.are
otsam.are
rodel.are
wildwood.are
matts.are
partbody.are
calinth.are
dock.are
caverns.are
drmscp.are
river.are
sdearth.are
wdearth.are
edearth.are
north.are
newtown.are
path.are
hyruk.are
$
